18 18 18 18 18 18 18 18 18 18 18 04 04 04 04 04 04 04 13 13 13 13 74 74 74 74 74 74 74 80 80 80 80 51 51 51 51 51 51 46 46 46 46 46 46 46 44 44 44 44 44 78 78 78 78 33 33
18 18 18 18 18 18 18 18 18 18 18 04 04 04 04 04 04 13 13 13 13 13 74 74 74 74 74 74 60 80 80 80 80 80 51 51 51 51 51 51 46 46 46 46 46 46 46 44 44 44 44 78 78 78 84 84 33
18 18 18 18 18 18 18 18 18 18 62 49 04 04 04 04 13 13 13 13 13 74 74 74 74 74 74 74 60 80 80 80 80 80 51 51 51 51 51 51 51 46 46 46 46 46 46 44 44 44 44 78 78 78 84 84 84
18 18 18 18 18 18 18 18 18 62 62 49 49 49 04 13 13 13 13 13 13 74 74 74 74 74 74 74 60 60 80 80 80 80 51 51 51 51 51 51 51 46 46 46 46 46 66 66 66 66 66 66 78 84 84 84 05
18 18 18 18 18 18 18 18 62 62 62 49 49 49 49 13 13 13 13 13 74 74 74 74 74 74 74 60 60 60 80 80 80 80 80 51 51 51 51 51 51 51 46 46 46 66 66 66 66 66 66 66 66 05 05 05 05
18 18 18 18 18 18 18 62 62 62 62 49 49 49 49 49 13 13 13 74 74 74 74 74 74 74 74 60 60 60 80 80 80 80 80 51 51 51 51 51 51 51 51 46 46 66 66 66 66 66 66 66 05 05 05 05 05
07 07 07 07 18 18 62 62 62 62 62 49 49 49 49 49 49 13 13 74 74 74 74 74 74 74 74 60 60 60 60 80 80 80 80 15 15 51 51 51 51 51 51 71 71 71 71 71 28 28 28 02 02 05 05 05 05
07 07 07 07 07 07 37 37 37 37 37 39 11 11 11 11 11 11 14 14 14 14 14 14 14 14 14 60 60 60 60 80 80 80 80 15 15 15 15 15 51 51 83 71 71 71 71 71 28 28 02 02 02 02 41 41 41
07 07 07 07 07 07 37 37 37 37 39 39 11 11 11 11 11 11 11 14 14 14 14 14 14 14 60 60 60 60 60 80 80 80 80 15 15 15 15 15 15 83 83 83 71 71 71 71 28 28 02 02 02 02 41 41 41
07 07 07 07 07 07 07 37 37 85 39 39 39 11 11 11 11 11 75 14 14 14 14 14 14 14 60 60 60 60 89 89 80 80 80 15 15 15 15 15 83 83 83 83 71 71 71 71 28 28 02 02 02 02 41 41 41
23 23 07 07 07 07 07 56 56 85 85 39 81 81 75 75 75 75 75 14 14 14 14 14 14 14 60 60 89 89 89 89 89 89 77 15 15 15 15 83 83 83 83 83 83 71 71 71 28 02 02 02 02 02 30 30 41
23 23 23 23 07 07 56 56 56 56 85 81 81 75 75 75 75 75 75 75 14 14 14 14 14 14 89 89 89 89 89 89 89 77 77 77 77 77 83 83 83 83 83 83 83 50 50 71 28 02 02 02 02 30 30 30 30
23 23 23 23 23 23 56 56 56 27 27 27 21 21 75 75 75 75 75 67 67 14 14 14 14 58 58 58 58 58 58 58 58 77 77 77 77 77 77 83 83 83 83 08 08 50 50 50 50 02 02 25 25 25 30 30 30
23 23 23 23 23 23 56 56 27 27 27 27 21 21 21 75 75 67 67 67 67 67 67 14 58 58 58 58 58 58 58 58 58 77 77 77 77 77 77 83 08 08 08 08 08 50 50 50 34 34 72 25 25 25 25 30 65
23 23 23 23 23 23 23 16 16 16 16 16 21 21 36 36 36 67 67 67 67 67 42 47 47 47 58 58 58 58 58 58 12 12 77 77 77 77 77 08 08 08 08 08 08 50 50 34 34 34 72 72 25 25 25 65 65
76 76 23 23 23 23 16 16 16 16 16 16 36 36 36 36 67 67 67 67 67 42 42 47 47 47 47 58 58 58 58 12 12 12 12 77 77 77 77 08 08 08 08 86 86 50 34 34 34 34 72 72 72 25 25 25 65
76 76 76 76 76 87 16 16 16 16 16 16 36 36 36 36 67 67 67 67 42 42 42 47 47 47 47 47 58 12 12 12 12 12 12 12 77 77 77 08 08 86 86 86 86 86 34 34 34 24 24 72 72 72 82 82 82
76 76 76 76 87 87 87 16 16 16 16 06 06 06 36 36 67 67 67 42 42 42 42 47 47 47 47 47 47 52 52 52 52 52 52 52 52 17 17 17 17 86 86 86 86 69 22 34 24 24 24 64 72 82 82 82 82
76 76 76 76 87 87 87 87 16 06 06 06 06 06 06 06 67 67 42 42 42 42 42 47 47 47 47 47 47 52 52 52 52 52 52 52 52 17 17 17 17 17 86 86 69 69 22 22 24 24 24 64 64 82 82 82 82
01 01 01 87 87 87 87 87 87 06 06 06 06 06 06 06 90 90 42 42 42 42 42 47 47 47 47 47 48 48 52 52 52 52 52 52 17 17 17 17 17 17 17 69 69 69 22 22 24 24 64 64 64 64 82 82 82
01 01 01 87 87 87 87 87 87 06 06 06 06 06 06 06 90 90 90 42 42 42 42 47 47 47 48 48 48 48 10 10 52 52 52 52 17 17 17 17 17 17 17 69 69 69 22 88 88 24 45 45 45 45 82 82 82
01 01 01 87 87 87 87 87 87 06 06 06 06 06 06 90 90 90 90 90 42 42 42 47 48 48 48 48 48 10 10 10 10 10 10 10 17 17 17 17 17 17 17 69 69 69 88 88 26 26 45 45 45 45 45 32 32
01 01 01 87 87 87 87 87 87 79 38 38 38 38 38 53 90 90 90 90 42 31 31 73 73 73 48 48 48 10 10 10 10 10 10 10 17 17 17 17 17 17 17 54 54 54 88 26 26 26 03 45 45 45 32 32 32
01 01 01 87 87 87 87 87 79 79 79 38 38 38 38 53 53 53 53 90 31 31 31 73 73 73 73 73 48 10 10 10 10 10 10 63 63 17 17 17 17 17 54 54 54 54 19 19 26 03 03 03 03 32 32 32 32
01 01 01 57 87 87 87 87 79 79 79 79 38 38 38 53 53 53 53 53 31 31 31 31 73 73 73 73 10 10 10 10 10 55 63 63 63 63 17 17 17 54 54 54 54 54 19 19 19 03 03 03 03 32 32 32 32
70 57 57 57 57 57 57 35 35 79 79 79 79 61 61 43 43 43 43 31 31 31 31 31 31 73 73 73 10 10 10 10 55 55 63 63 63 63 63 17 54 54 54 54 54 54 19 19 19 19 03 03 03 20 29 29 68
70 57 57 57 57 57 35 35 35 35 79 79 79 61 61 43 43 43 59 59 31 31 31 31 31 73 73 73 10 10 55 55 55 55 63 63 63 63 63 63 54 54 54 54 54 09 19 19 19 19 03 03 20 20 20 29 68
70 70 57 57 57 57 35 35 35 35 35 79 79 61 61 43 43 59 59 59 59 31 31 31 31 31 73 73 10 55 55 55 55 55 63 63 63 63 63 63 54 54 54 09 09 09 09 09 09 19 19 20 20 20 20 20 68
70 70 57 57 57 57 35 35 35 35 35 35 79 61 61 59 59 59 59 59 59 59 31 31 31 31 31 73 55 55 55 55 55 55 63 63 63 63 63 63 54 09 09 09 09 09 09 09 09 09 09 20 20 20 20 20 68
70 70 70 57 57 57 35 35 35 35 35 35 35 61 59 59 59 59 59 59 59 59 31 31 31 31 31 73 55 55 55 55 55 55 63 63 63 63 63 63 09 09 09 09 09 09 09 09 09 09 09 20 20 20 20 20 20
