29 29 29 29 29 29 29 29 29 29 39 39 39 39 39 39 15 15 05 05 05 05 05 05 17 17 17 42 42 42 42 42 42 31 31 16 16 16 16 16 16 01 01 01 01 01 01 01 01 01 01 01 01 01 01 01 22
29 29 29 29 29 29 29 29 29 29 40 39 39 39 39 39 39 15 05 05 05 05 05 17 17 17 17 17 42 42 42 42 42 31 31 16 16 16 16 16 16 30 01 01 01 01 01 01 01 01 01 01 01 01 01 22 22
29 29 29 29 29 29 29 29 29 40 40 40 39 39 39 39 39 39 05 05 05 05 05 17 17 17 17 17 42 42 42 42 42 31 31 31 16 16 16 16 30 30 30 01 01 01 01 01 01 01 01 01 01 01 22 22 22
29 29 29 29 29 29 29 29 29 40 40 40 40 40 33 33 33 33 33 05 05 05 17 17 17 17 17 17 42 42 42 42 31 31 31 31 16 16 16 16 30 30 30 30 01 01 01 01 01 01 01 01 01 22 22 22 22
29 29 29 29 29 29 29 29 29 40 40 40 40 40 33 33 33 33 33 33 52 52 52 17 17 17 17 17 17 42 42 42 31 31 31 31 31 16 16 16 30 30 30 30 30 01 01 01 01 01 01 01 22 22 22 22 22
29 29 29 29 29 29 29 29 29 40 40 40 40 40 40 33 33 33 33 52 52 52 52 52 17 17 17 17 17 42 42 42 31 31 31 31 31 16 16 16 23 30 30 30 30 30 01 01 01 01 01 22 22 22 22 22 22
07 07 07 07 07 07 07 07 07 40 40 40 40 40 40 33 33 33 33 52 52 52 52 52 52 17 17 17 17 42 42 31 31 31 31 31 31 31 16 23 23 23 23 23 30 30 30 01 01 01 01 22 22 22 22 22 22
07 07 07 07 07 07 07 07 07 14 40 40 40 40 40 33 54 54 54 52 52 52 52 52 52 52 17 17 17 17 42 31 31 31 31 31 31 31 23 23 23 23 23 23 23 23 23 30 01 01 22 22 22 22 22 22 22
07 07 07 07 07 07 07 07 14 14 14 40 40 40 40 54 54 54 54 54 52 52 52 52 52 52 17 17 17 17 42 31 31 31 31 31 31 23 23 23 23 23 23 23 23 23 23 23 23 22 22 22 22 22 22 22 22
07 07 07 07 07 07 07 14 14 14 14 14 40 40 40 54 54 54 54 54 52 52 52 52 52 52 52 17 17 17 41 41 41 41 41 41 41 38 38 23 23 23 23 23 23 23 23 23 23 22 22 22 22 22 22 22 22
07 07 07 07 07 07 14 14 14 14 14 14 14 40 54 54 54 54 54 54 52 52 52 52 52 52 52 49 49 41 41 41 41 41 41 41 41 38 38 38 38 23 23 23 23 23 23 23 23 22 22 22 22 22 22 22 22
07 07 07 07 07 14 14 14 14 14 14 14 14 14 54 54 54 54 54 54 52 52 52 52 52 49 49 49 49 49 41 41 41 41 41 41 41 38 38 38 38 38 23 23 23 23 23 23 22 22 22 22 22 22 22 22 22
07 07 07 07 14 14 14 14 14 14 14 14 14 14 54 54 54 54 54 54 54 52 52 52 49 49 49 49 49 49 41 41 41 41 41 41 41 38 38 38 38 38 06 06 06 37 37 37 32 22 22 22 22 22 22 22 22
19 19 19 19 19 14 14 14 14 14 14 14 14 14 54 54 54 54 54 54 54 52 27 49 49 49 49 49 49 49 49 08 08 08 08 08 08 38 38 38 06 06 06 06 37 37 37 37 32 32 22 22 22 22 22 22 22
19 19 19 19 19 19 14 14 14 14 14 14 14 14 43 54 54 54 54 54 27 27 27 27 49 49 49 49 49 49 49 08 08 08 08 08 08 08 38 06 06 06 06 37 37 37 37 32 32 32 32 32 22 22 22 22 22
19 19 19 19 19 19 19 24 24 14 14 14 43 43 43 43 43 54 54 27 27 27 27 27 27 49 49 49 49 49 49 08 08 08 08 08 08 08 06 06 06 06 37 37 37 37 37 32 32 32 32 32 32 22 22 22 22
19 19 19 19 19 19 24 24 24 24 24 43 43 43 43 43 43 43 36 27 27 27 27 27 27 27 49 49 49 49 49 49 08 08 08 08 08 08 06 06 06 37 37 37 37 37 32 32 32 32 32 32 32 32 22 22 22
19 19 19 19 19 19 24 24 24 24 43 43 43 43 43 43 43 43 36 27 27 27 27 27 27 27 27 49 49 45 45 45 11 11 11 53 53 53 53 06 37 37 37 37 37 37 32 32 32 32 32 32 32 32 32 32 22
18 18 18 18 18 18 24 24 24 24 43 43 43 43 43 43 43 36 36 36 27 27 27 27 27 27 27 45 45 45 45 45 11 11 11 11 53 53 53 53 37 37 26 26 26 26 32 32 32 32 32 32 32 32 32 32 13
18 18 18 18 18 18 24 24 24 24 43 43 43 43 43 43 43 36 36 36 36 27 27 27 27 27 27 45 45 45 45 02 11 11 11 11 53 53 53 53 26 26 26 26 26 26 32 32 32 32 32 32 32 32 13 13 13
48 48 18 18 18 18 24 24 24 43 43 43 43 43 43 43 36 36 36 36 36 36 27 27 27 27 27 45 45 45 02 02 11 11 11 11 53 53 53 53 26 26 26 26 26 26 12 32 32 32 32 32 32 13 13 13 13
48 48 48 48 48 18 24 24 24 43 43 43 43 43 43 43 36 36 36 36 36 36 27 27 27 27 25 25 25 25 02 02 02 11 11 11 11 53 53 53 26 26 26 26 26 03 03 12 12 32 32 13 13 13 13 13 13
48 48 48 48 48 48 24 24 24 43 43 43 43 43 43 36 36 36 36 36 36 36 36 27 25 25 25 25 25 25 02 02 02 02 11 11 11 53 53 26 26 26 26 26 03 03 03 12 12 09 09 13 13 13 13 13 13
48 48 48 48 48 48 48 34 34 34 43 43 43 43 43 36 36 36 36 36 36 36 36 10 10 25 25 25 25 25 02 02 02 02 11 11 11 53 47 44 44 44 44 44 03 03 03 03 09 09 09 13 13 13 13 13 13
48 48 48 48 48 48 34 34 34 34 34 43 43 43 36 36 36 36 36 36 36 36 10 10 10 10 25 25 25 25 02 02 02 02 20 28 28 28 47 47 44 44 44 44 44 03 03 03 09 09 09 13 13 13 13 13 13
48 48 48 48 48 34 34 34 34 34 34 34 34 43 36 36 36 36 36 36 36 10 10 10 10 10 10 25 25 25 02 20 20 20 20 28 28 28 47 47 47 44 44 44 35 03 03 03 09 09 09 13 13 13 13 13 13
48 48 48 48 48 34 34 34 34 34 34 34 34 34 36 36 36 36 36 36 10 10 10 10 10 10 10 10 25 20 20 20 20 20 20 28 28 28 47 47 47 46 46 35 35 35 03 03 09 09 09 13 13 13 13 13 13
48 48 48 48 34 34 34 34 34 34 34 34 34 34 36 36 36 36 36 10 10 10 10 10 10 10 10 10 10 20 20 20 20 20 20 28 28 28 28 47 47 46 35 35 35 35 21 21 21 21 09 13 13 13 13 13 13
48 48 48 34 34 34 34 34 34 34 34 34 34 34 34 36 36 36 36 10 10 10 10 10 10 10 10 10 10 20 20 20 20 20 20 28 28 28 28 47 47 50 50 35 35 21 21 21 21 21 21 13 13 13 13 13 13
48 48 48 34 34 34 34 34 34 34 34 34 34 34 34 36 36 36 10 10 10 10 10 10 10 10 10 10 10 20 20 20 20 20 20 28 28 28 28 50 50 50 50 50 21 21 21 21 21 21 21 21 21 13 13 13 13
