8 8 8 8 8 2 2 2 7 7
8 8 8 8 8 2 2 2 7 7
8 8 8 8 8 4 7 7 7 7
3 3 4 4 4 4 7 7 7 7
3 3 3 4 4 4 4 7 7 7
3 3 3 3 4 4 4 7 8 8
3 3 3 3 3 4 8 8 8 8
3 3 3 3 1 5 8 8 8 8
3 3 3 1 1 5 5 8 8 8
3 3 1 1 1 5 5 1 1 1
